Work with RIDL resources (files) — resource • riddle
…
r
#> Error in eval(expr, envir, enclos): object 'r' not found

# But so far we’ve only created the metadata for the resource. The next
# step is to upload the data.
resource_upload(r$id, path = system.file("extdata/mtcars.csv", package = "readr"))
#> Error in resource_upload(r$id, path = system.file("extdata/mtcars.csv",     package = "readr")): could not find function "resource_upload"

resource_search("name:mtcars")
#> # A tibble: 23 × 31
#>    id           packa…¹ url   format descr…² hash  posit…³ name  resou…⁴ mimet…⁵
#>    <chr>        <chr>   <chr> <chr>  <chr>   <chr>   <int> <chr> <lgl>   <chr>  
#>  1 3acdcd5a-4f… eb71cf… http… CSV    "Some … ""          0 mtca… NA      applic…
#>  2 c70cdca6-83… 017591… http… CSV    ""      ""          0 mtca… NA      applic…
#>  3 a8c562fb-35… 5f01ae… http… TXT    "Some … ""          0 mtca… NA      text/p…
#>  4 aa464ce4-0d… 07b30a… http… CSV    "Some … ""          0 mtca… NA      NA     
#>  5 6f698bbe-77… 005277… http… CSV    "Some … ""          0 mtca… NA      applic…
#>  6 071b3fce-df… 08ffbb… http… CSV    "Some … ""          0 mtca… NA      applic…
#>  7 debc8207-ad… ac166d… http… CSV    "Some … ""          0 mtca… NA      applic…
#>  8 ea4aadda-13… 72de44… http… CSV    "Some … ""          0 mtca… NA      applic…
#>  9 63f1bdc6-b7… aa6eaa… http… CSV    "Some … ""          0 mtca… NA      NA     
#> 10 689cbcac-2c… eb71cf… http… CSV    "Some … ""          1 mtca… NA      applic…
#> # … with 13 more rows, 21 more variables: mimetype_inner <lgl>, size <int>,
#> #   created <chr>, last_modified <chr>, metadata_modified <chr>,
#> #   cache_url <lgl>, cache_last_updated <lgl>, url_type <chr>, state <chr>,
#> #   type <chr>, version <chr>, `hxl-ated` <chr>, file_type <chr>,
#> #   visibility <chr>, date_range_end <chr>, file_to_upload <chr>,
#> #   process_status <chr>, identifiability <chr>, datastore_active <lgl>,
#> #   date_range_start <chr>, title <chr>, and abbreviated variable names …
…
